{
    "annotations": {
      "list": [
        {
          "builtIn": 1,
          "datasource": "-- Grafana --",
          "enable": true,
          "hide": true,
          "iconColor": "rgba(0, 211, 255, 1)",
          "name": "Annotations & Alerts",
          "type": "dashboard"
        }
      ]
    },
    "description": "Process status published by Go Prometheus client library, e.g. memory used, fds open, GC details",
    "editable": true,
    "gnetId": 6671,
    "graphTooltip": 0,
    "id": 25,
    "iteration": 1575986388740,
    "links": [],
    "panels": [
      {
        "aliasColors": {},
        "bars": false,
        "dashLength": 10,
        "dashes": false,
        "datasource": "Prometheus",
        "editable": true,
        "error": false,
        "fill": 1,
        "fillGradient": 0,
        "grid": {},
        "gridPos": {
          "h": 8,
          "w": 12,
          "x": 0,
          "y": 0
        },
        "id": 1,
        "isNew": true,
        "legend": {
          "alignAsTable": true,
          "avg": true,
          "current": true,
          "max": true,
          "min": false,
          "rightSide": false,
          "show": true,
          "total": false,
          "values": true
        },
        "lines": true,
        "linewidth": 2,
        "links": [],
        "nullPointMode": "connected",
        "options": {
          "dataLinks": []
        },
        "percentage": false,
        "pointradius": 5,
        "points": false,
        "renderer": "flot",
        "seriesOverrides": [
          {
            "alias": "resident",
            "yaxis": 2
          }
        ],
        "spaceLength": 10,
        "stack": false,
        "steppedLine": false,
        "targets": [
          {
            "expr": "process_resident_memory_bytes{namespace=~\"^($namespace)$\",pod=~\"^($pod)$\"}",
            "format": "time_series",
            "intervalFactor": 2,
            "legendFormat": "{{pod}} - resident",
            "metric": "process_resident_memory_bytes",
            "refId": "A",
            "step": 4
          },
          {
            "expr": "process_virtual_memory_bytes{namespace=~\"^($namespace)$\",pod=~\"^($pod)$\"}",
            "format": "time_series",
            "intervalFactor": 2,
            "legendFormat": "{{pod}} - virtual",
            "metric": "process_virtual_memory_bytes",
            "refId": "B",
            "step": 4
          }
        ],
        "thresholds": [],
        "timeFrom": null,
        "timeRegions": [],
        "timeShift": null,
        "title": "process memory",
        "tooltip": {
          "msResolution": false,
          "shared": true,
          "sort": 0,
          "value_type": "cumulative"
        },
        "type": "graph",
        "xaxis": {
          "buckets": null,
          "mode": "time",
          "name": null,
          "show": true,
          "values": []
        },
        "yaxes": [
          {
            "format": "bytes",
            "label": null,
            "logBase": 1,
            "max": null,
            "min": null,
            "show": true
          },
          {
            "format": "short",
            "label": null,
            "logBase": 1,
            "max": null,
            "min": null,
            "show": true
          }
        ],
        "yaxis": {
          "align": false,
          "alignLevel": null
        }
      },
      {
        "aliasColors": {},
        "bars": false,
        "dashLength": 10,
        "dashes": false,
        "datasource": "Prometheus",
        "editable": true,
        "error": false,
        "fill": 1,
        "fillGradient": 0,
        "grid": {},
        "gridPos": {
          "h": 8,
          "w": 12,
          "x": 12,
          "y": 0
        },
        "id": 4,
        "isNew": true,
        "legend": {
          "alignAsTable": true,
          "avg": true,
          "current": true,
          "max": true,
          "min": false,
          "show": true,
          "total": false,
          "values": true
        },
        "lines": true,
        "linewidth": 2,
        "links": [],
        "nullPointMode": "connected",
        "options": {
          "dataLinks": []
        },
        "percentage": false,
        "pointradius": 5,
        "points": false,
        "renderer": "flot",
        "seriesOverrides": [
          {
            "alias": "resident",
            "yaxis": 1
          }
        ],
        "spaceLength": 10,
        "stack": false,
        "steppedLine": false,
        "targets": [
          {
            "expr": "rate(process_resident_memory_bytes{namespace=~\"^($namespace)$\",pod=~\"^($pod)$\"}[$interval])",
            "format": "time_series",
            "intervalFactor": 2,
            "legendFormat": "{{pod}} - resident",
            "metric": "process_resident_memory_bytes",
            "refId": "A",
            "step": 4
          },
          {
            "expr": "deriv(process_virtual_memory_bytes{namespace=~\"^($namespace)$\",pod=~\"^($pod)$\"}[$interval])",
            "format": "time_series",
            "intervalFactor": 2,
            "legendFormat": "{{pod}} - virtual",
            "metric": "process_virtual_memory_bytes",
            "refId": "B",
            "step": 4
          }
        ],
        "thresholds": [],
        "timeFrom": null,
        "timeRegions": [],
        "timeShift": null,
        "title": "process memory deriv",
        "tooltip": {
          "msResolution": false,
          "shared": true,
          "sort": 0,
          "value_type": "cumulative"
        },
        "type": "graph",
        "xaxis": {
          "buckets": null,
          "mode": "time",
          "name": null,
          "show": true,
          "values": []
        },
        "yaxes": [
          {
            "format": "bytes",
            "label": null,
            "logBase": 1,
            "max": null,
            "min": null,
            "show": true
          },
          {
            "format": "short",
            "label": null,
            "logBase": 1,
            "max": null,
            "min": null,
            "show": true
          }
        ],
        "yaxis": {
          "align": false,
          "alignLevel": null
        }
      },
      {
        "aliasColors": {},
        "bars": false,
        "dashLength": 10,
        "dashes": false,
        "datasource": "Prometheus",
        "editable": true,
        "error": false,
        "fill": 1,
        "fillGradient": 0,
        "grid": {},
        "gridPos": {
          "h": 7,
          "w": 12,
          "x": 0,
          "y": 8
        },
        "id": 2,
        "isNew": true,
        "legend": {
          "alignAsTable": true,
          "avg": true,
          "current": true,
          "max": true,
          "min": false,
          "show": true,
          "total": false,
          "values": true
        },
        "lines": true,
        "linewidth": 2,
        "links": [],
        "nullPointMode": "connected",
        "options": {
          "dataLinks": []
        },
        "percentage": false,
        "pointradius": 5,
        "points": false,
        "renderer": "flot",
        "seriesOverrides": [
          {
            "alias": "alloc rate",
            "yaxis": 2
          }
        ],
        "spaceLength": 10,
        "stack": false,
        "steppedLine": false,
        "targets": [
          {
            "expr": "go_memstats_alloc_bytes{namespace=~\"^($namespace)$\",pod=~\"^($pod)$\"}",
            "format": "time_series",
            "intervalFactor": 2,
            "legendFormat": "{{pod}} - bytes allocated",
            "metric": "go_memstats_alloc_bytes",
            "refId": "A",
            "step": 4
          },
          {
            "expr": "rate(go_memstats_alloc_bytes_total{namespace=~\"^($namespace)$\",pod=~\"^($pod)$\"}[30s])",
            "format": "time_series",
            "intervalFactor": 2,
            "legendFormat": "{{pod}} - alloc rate",
            "metric": "go_memstats_alloc_bytes_total",
            "refId": "B",
            "step": 4
          },
          {
            "expr": "go_memstats_stack_inuse_bytes{namespace=~\"^($namespace)$\",pod=~\"^($pod)$\"}",
            "format": "time_series",
            "intervalFactor": 2,
            "legendFormat": "{{pod}} - stack inuse",
            "metric": "go_memstats_stack_inuse_bytes",
            "refId": "C",
            "step": 4
          },
          {
            "expr": "go_memstats_heap_inuse_bytes{namespace=~\"^($namespace)$\",pod=~\"^($pod)$\"}",
            "format": "time_series",
            "hide": false,
            "intervalFactor": 2,
            "legendFormat": "{{pod}} - heap inuse",
            "metric": "go_memstats_heap_inuse_bytes",
            "refId": "D",
            "step": 4
          }
        ],
        "thresholds": [],
        "timeFrom": null,
        "timeRegions": [],
        "timeShift": null,
        "title": "go memstats",
        "tooltip": {
          "msResolution": false,
          "shared": true,
          "sort": 0,
          "value_type": "cumulative"
        },
        "type": "graph",
        "xaxis": {
          "buckets": null,
          "mode": "time",
          "name": null,
          "show": true,
          "values": []
        },
        "yaxes": [
          {
            "format": "bytes",
            "label": null,
            "logBase": 1,
            "max": null,
            "min": null,
            "show": true
          },
          {
            "format": "Bps",
            "label": null,
            "logBase": 1,
            "max": null,
            "min": null,
            "show": true
          }
        ],
        "yaxis": {
          "align": false,
          "alignLevel": null
        }
      },
      {
        "aliasColors": {},
        "bars": false,
        "dashLength": 10,
        "dashes": false,
        "datasource": "Prometheus",
        "editable": true,
        "error": false,
        "fill": 1,
        "fillGradient": 0,
        "grid": {},
        "gridPos": {
          "h": 7,
          "w": 12,
          "x": 12,
          "y": 8
        },
        "id": 5,
        "isNew": true,
        "legend": {
          "alignAsTable": true,
          "avg": true,
          "current": true,
          "max": true,
          "min": false,
          "show": true,
          "total": false,
          "values": true
        },
        "lines": true,
        "linewidth": 2,
        "links": [],
        "nullPointMode": "connected",
        "options": {
          "dataLinks": []
        },
        "percentage": false,
        "pointradius": 5,
        "points": false,
        "renderer": "flot",
        "seriesOverrides": [
          {
            "alias": "alloc rate",
            "yaxis": 2
          }
        ],
        "spaceLength": 10,
        "stack": false,
        "steppedLine": false,
        "targets": [
          {
            "expr": "deriv(go_memstats_alloc_bytes{namespace=~\"^($namespace)$\",pod=~\"^($pod)$\"}[$interval])",
            "format": "time_series",
            "intervalFactor": 2,
            "legendFormat": "{{pod}} - bytes allocated",
            "metric": "go_memstats_alloc_bytes",
            "refId": "A",
            "step": 4
          },
          {
            "expr": "rate(go_memstats_alloc_bytes_total{namespace=~\"^($namespace)$\",pod=~\"^($pod)$\"}[$interval])",
            "format": "time_series",
            "intervalFactor": 2,
            "legendFormat": "{{pod}} - alloc rate",
            "metric": "go_memstats_alloc_bytes_total",
            "refId": "B",
            "step": 4
          },
          {
            "expr": "deriv(go_memstats_stack_inuse_bytes{namespace=~\"^($namespace)$\",pod=~\"^($pod)$\"}[$interval])",
            "format": "time_series",
            "intervalFactor": 2,
            "legendFormat": "{{pod}} - stack inuse",
            "metric": "go_memstats_stack_inuse_bytes",
            "refId": "C",
            "step": 4
          },
          {
            "expr": "deriv(go_memstats_heap_inuse_bytes{namespace=~\"^($namespace)$\",pod=~\"^($pod)$\"}[$interval])",
            "format": "time_series",
            "hide": false,
            "intervalFactor": 2,
            "legendFormat": "{{pod}} - heap inuse",
            "metric": "go_memstats_heap_inuse_bytes",
            "refId": "D",
            "step": 4
          }
        ],
        "thresholds": [],
        "timeFrom": null,
        "timeRegions": [],
        "timeShift": null,
        "title": "go memstats deriv",
        "tooltip": {
          "msResolution": false,
          "shared": true,
          "sort": 0,
          "value_type": "cumulative"
        },
        "type": "graph",
        "xaxis": {
          "buckets": null,
          "mode": "time",
          "name": null,
          "show": true,
          "values": []
        },
        "yaxes": [
          {
            "format": "bytes",
            "label": null,
            "logBase": 1,
            "max": null,
            "min": null,
            "show": true
          },
          {
            "format": "Bps",
            "label": null,
            "logBase": 1,
            "max": null,
            "min": null,
            "show": true
          }
        ],
        "yaxis": {
          "align": false,
          "alignLevel": null
        }
      },
      {
        "aliasColors": {},
        "bars": false,
        "dashLength": 10,
        "dashes": false,
        "datasource": "Prometheus",
        "editable": true,
        "error": false,
        "fill": 1,
        "fillGradient": 0,
        "grid": {},
        "gridPos": {
          "h": 7,
          "w": 12,
          "x": 0,
          "y": 15
        },
        "id": 3,
        "isNew": true,
        "legend": {
          "alignAsTable": true,
          "avg": true,
          "current": true,
          "max": true,
          "min": false,
          "show": true,
          "total": false,
          "values": true
        },
        "lines": true,
        "linewidth": 2,
        "links": [],
        "nullPointMode": "connected",
        "options": {
          "dataLinks": []
        },
        "percentage": false,
        "pointradius": 5,
        "points": false,
        "renderer": "flot",
        "seriesOverrides": [],
        "spaceLength": 10,
        "stack": false,
        "steppedLine": false,
        "targets": [
          {
            "expr": "process_open_fds{namespace=~\"^($namespace)$\",pod=~\"^($pod)$\"}",
            "format": "time_series",
            "intervalFactor": 2,
            "legendFormat": "{{pod}}",
            "metric": "process_open_fds",
            "refId": "A",
            "step": 4
          }
        ],
        "thresholds": [],
        "timeFrom": null,
        "timeRegions": [],
        "timeShift": null,
        "title": "open fds",
        "tooltip": {
          "msResolution": false,
          "shared": true,
          "sort": 0,
          "value_type": "cumulative"
        },
        "type": "graph",
        "xaxis": {
          "buckets": null,
          "mode": "time",
          "name": null,
          "show": true,
          "values": []
        },
        "yaxes": [
          {
            "format": "short",
            "label": null,
            "logBase": 1,
            "max": null,
            "min": null,
            "show": true
          },
          {
            "format": "short",
            "label": null,
            "logBase": 1,
            "max": null,
            "min": null,
            "show": true
          }
        ],
        "yaxis": {
          "align": false,
          "alignLevel": null
        }
      },
      {
        "aliasColors": {},
        "bars": false,
        "dashLength": 10,
        "dashes": false,
        "datasource": "Prometheus",
        "editable": true,
        "error": false,
        "fill": 1,
        "fillGradient": 0,
        "grid": {},
        "gridPos": {
          "h": 7,
          "w": 12,
          "x": 12,
          "y": 15
        },
        "id": 6,
        "isNew": true,
        "legend": {
          "alignAsTable": true,
          "avg": true,
          "current": true,
          "max": true,
          "min": false,
          "show": true,
          "total": false,
          "values": true
        },
        "lines": true,
        "linewidth": 2,
        "links": [],
        "nullPointMode": "connected",
        "options": {
          "dataLinks": []
        },
        "percentage": false,
        "pointradius": 5,
        "points": false,
        "renderer": "flot",
        "seriesOverrides": [],
        "spaceLength": 10,
        "stack": false,
        "steppedLine": false,
        "targets": [
          {
            "expr": "deriv(process_open_fds{namespace=~\"^($namespace)$\",pod=~\"^($pod)$\"}[$interval])",
            "format": "time_series",
            "intervalFactor": 2,
            "legendFormat": "{{pod}}",
            "metric": "process_open_fds",
            "refId": "A",
            "step": 4
          }
        ],
        "thresholds": [],
        "timeFrom": null,
        "timeRegions": [],
        "timeShift": null,
        "title": "open fds deriv",
        "tooltip": {
          "msResolution": false,
          "shared": true,
          "sort": 0,
          "value_type": "cumulative"
        },
        "type": "graph",
        "xaxis": {
          "buckets": null,
          "mode": "time",
          "name": null,
          "show": true,
          "values": []
        },
        "yaxes": [
          {
            "format": "short",
            "label": null,
            "logBase": 1,
            "max": null,
            "min": null,
            "show": true
          },
          {
            "format": "short",
            "label": null,
            "logBase": 1,
            "max": null,
            "min": null,
            "show": true
          }
        ],
        "yaxis": {
          "align": false,
          "alignLevel": null
        }
      },
      {
        "aliasColors": {},
        "bars": false,
        "dashLength": 10,
        "dashes": false,
        "datasource": "Prometheus",
        "editable": true,
        "error": false,
        "fill": 1,
        "fillGradient": 0,
        "grid": {},
        "gridPos": {
          "h": 7,
          "w": 12,
          "x": 0,
          "y": 22
        },
        "id": 7,
        "isNew": true,
        "legend": {
          "alignAsTable": true,
          "avg": true,
          "current": true,
          "max": true,
          "min": false,
          "show": true,
          "total": false,
          "values": true
        },
        "lines": true,
        "linewidth": 2,
        "links": [],
        "nullPointMode": "connected",
        "options": {
          "dataLinks": []
        },
        "percentage": false,
        "pointradius": 5,
        "points": false,
        "renderer": "flot",
        "seriesOverrides": [],
        "spaceLength": 10,
        "stack": false,
        "steppedLine": false,
        "targets": [
          {
            "expr": "go_goroutines{namespace=~\"^($namespace)$\",pod=~\"^($pod)$\"}",
            "format": "time_series",
            "intervalFactor": 2,
            "legendFormat": "{{pod}}",
            "metric": "go_goroutines",
            "refId": "A",
            "step": 4
          }
        ],
        "thresholds": [],
        "timeFrom": null,
        "timeRegions": [],
        "timeShift": null,
        "title": "Goroutines",
        "tooltip": {
          "msResolution": false,
          "shared": true,
          "sort": 0,
          "value_type": "cumulative"
        },
        "type": "graph",
        "xaxis": {
          "buckets": null,
          "mode": "time",
          "name": null,
          "show": true,
          "values": []
        },
        "yaxes": [
          {
            "format": "short",
            "label": null,
            "logBase": 1,
            "max": null,
            "min": null,
            "show": true
          },
          {
            "format": "short",
            "label": null,
            "logBase": 1,
            "max": null,
            "min": null,
            "show": true
          }
        ],
        "yaxis": {
          "align": false,
          "alignLevel": null
        }
      },
      {
        "aliasColors": {},
        "bars": false,
        "dashLength": 10,
        "dashes": false,
        "datasource": "Prometheus",
        "editable": true,
        "error": false,
        "fill": 1,
        "fillGradient": 0,
        "grid": {},
        "gridPos": {
          "h": 7,
          "w": 12,
          "x": 12,
          "y": 22
        },
        "id": 8,
        "isNew": true,
        "legend": {
          "alignAsTable": true,
          "avg": true,
          "current": true,
          "max": true,
          "min": false,
          "show": true,
          "total": false,
          "values": true
        },
        "lines": true,
        "linewidth": 2,
        "links": [],
        "nullPointMode": "connected",
        "options": {
          "dataLinks": []
        },
        "percentage": false,
        "pointradius": 5,
        "points": false,
        "renderer": "flot",
        "seriesOverrides": [],
        "spaceLength": 10,
        "stack": false,
        "steppedLine": false,
        "targets": [
          {
            "expr": "go_gc_duration_seconds{namespace=~\"^($namespace)$\",pod=~\"^($pod)$\"}",
            "format": "time_series",
            "intervalFactor": 2,
            "legendFormat": "{{pod}}: {{quantile}}",
            "metric": "go_gc_duration_seconds",
            "refId": "A",
            "step": 4
          }
        ],
        "thresholds": [],
        "timeFrom": null,
        "timeRegions": [],
        "timeShift": null,
        "title": "GC duration quantiles",
        "tooltip": {
          "msResolution": false,
          "shared": true,
          "sort": 0,
          "value_type": "cumulative"
        },
        "type": "graph",
        "xaxis": {
          "buckets": null,
          "mode": "time",
          "name": null,
          "show": true,
          "values": []
        },
        "yaxes": [
          {
            "format": "s",
            "label": null,
            "logBase": 1,
            "max": null,
            "min": null,
            "show": true
          },
          {
            "format": "short",
            "label": null,
            "logBase": 1,
            "max": null,
            "min": null,
            "show": true
          }
        ],
        "yaxis": {
          "align": false,
          "alignLevel": null
        }
      }
    ],
    "refresh": "30s",
    "schemaVersion": 20,
    "style": "dark",
    "tags": [],
    "templating": {
      "list": [
        {
          "allValue": ".*",
          "current": {
            "text": "All",
            "value": "$__all"
          },
          "datasource": "Prometheus",
          "definition": "",
          "hide": 0,
          "includeAll": true,
          "label": null,
          "multi": true,
          "name": "namespace",
          "options": [],
          "query": "label_values(go_memstats_alloc_bytes, namespace)",
          "refresh": 2,
          "regex": "",
          "skipUrlSync": false,
          "sort": 0,
          "tagValuesQuery": "",
          "tags": [],
          "tagsQuery": "",
          "type": "query",
          "useTags": false
        },
        {
          "allValue": ".*",
          "current": {
            "text": "All",
            "value": "$__all"
          },
          "datasource": "Prometheus",
          "definition": "",
          "hide": 0,
          "includeAll": true,
          "label": null,
          "multi": true,
          "name": "pod",
          "options": [],
          "query": "label_values(process_resident_memory_bytes, pod)",
          "refresh": 2,
          "regex": "",
          "skipUrlSync": false,
          "sort": 0,
          "tagValuesQuery": "",
          "tags": [],
          "tagsQuery": "",
          "type": "query",
          "useTags": false
        },
        {
          "auto": false,
          "auto_count": 30,
          "auto_min": "10s",
          "current": {
            "text": "5m",
            "value": "5m"
          },
          "datasource": null,
          "hide": 0,
          "includeAll": false,
          "label": "",
          "multi": false,
          "name": "interval",
          "options": [
            {
              "selected": false,
              "text": "1m",
              "value": "1m"
            },
            {
              "selected": true,
              "text": "5m",
              "value": "5m"
            },
            {
              "selected": false,
              "text": "10m",
              "value": "10m"
            },
            {
              "selected": false,
              "text": "30m",
              "value": "30m"
            },
            {
              "selected": false,
              "text": "1h",
              "value": "1h"
            }
          ],
          "query": "1m,5m,10m,30m,1h",
          "refresh": 2,
          "skipUrlSync": false,
          "type": "interval"
        }
      ]
    },
    "time": {
      "from": "now-30m",
      "to": "now"
    },
    "timepicker": {
      "refresh_intervals": [
        "5s",
        "10s",
        "30s",
        "1m",
        "5m",
        "15m",
        "30m",
        "1h",
        "2h",
        "1d"
      ],
      "time_options": [
        "5m",
        "15m",
        "1h",
        "6h",
        "12h",
        "24h",
        "2d",
        "7d",
        "30d"
      ]
    },
    "timezone": "browser",
    "title": "Go Processes",
    "uid": "ypFZFgvmz",
    "version": 1
  }